       10.00        8.04
        8.00        6.95
       13.00        7.58
        9.00        8.81
       11.00        8.33
       14.00        9.96
        6.00        7.24
        4.00        4.26
       12.00       10.84
        7.00        4.82
        5.00        5.68
