        8.00        6.58
        8.00        5.76
        8.00        7.71
        8.00        8.84
        8.00        8.47
        8.00        7.04
        8.00        5.25
       19.00       12.50
        8.00        5.56
        8.00        7.91
        8.00        6.89
